{
  "base_url": "/user/cyril_duval-mt15-2021-vq2x15a3/",
  "hostname": "0.0.0.0",
  "notebook_dir": "/home/jovyan",
  "password": false,
  "pid": 26,
  "port": 8888,
  "secure": false,
  "sock": "",
  "token": "LvVu0yboS4qqH0gNJQW5Tw",
  "url": "http://0.0.0.0:8888/user/cyril_duval-mt15-2021-vq2x15a3/"
}